<svg width="20" height="20" viewBox="0 0 20 20" fill="none" xmlns="http://www.w3.org/2000/svg">
<path d="M12.4793 2.51582L13.2792 1.07283C13.2894 1.05432 13.2959 1.03396 13.2983 1.01293C13.3007 0.991903 13.299 0.970606 13.2931 0.950259C13.2873 0.929912 13.2775 0.910913 13.2643 0.894347C13.2512 0.877781 13.2348 0.863972 13.2163 0.853709C13.1789 0.832983 13.1349 0.827957 13.0938 0.839738C13.0527 0.85152 13.0179 0.879142 12.9972 0.91653L12.1885 2.37551C11.4985 2.07302 10.7533 1.91685 9.99986 1.91685C9.24646 1.91685 8.50123 2.07302 7.81122 2.37551L7.00248 0.91653C6.98176 0.879142 6.94703 0.85152 6.90593 0.839738C6.86484 0.827957 6.82075 0.832983 6.78336 0.853709C6.74598 0.874436 6.71835 0.909166 6.70657 0.950259C6.69479 0.991352 6.69981 1.03544 6.72054 1.07283L7.52042 2.51583C6.75903 2.89114 6.1157 3.46889 5.66101 4.18571C5.20632 4.90253 4.95782 5.73072 4.94278 6.57945H15.0569C15.0419 5.73072 14.7934 4.90252 14.3387 4.1857C13.884 3.46888 13.2407 2.89113 12.4793 2.51582ZM7.66578 4.72882C7.58225 4.72882 7.50059 4.70405 7.43114 4.65765C7.36169 4.61124 7.30756 4.54528 7.27559 4.46811C7.24362 4.39094 7.23526 4.30602 7.25156 4.2241C7.26785 4.14217 7.30808 4.06692 7.36714 4.00785C7.4262 3.94879 7.50146 3.90857 7.58338 3.89227C7.66531 3.87597 7.75022 3.88434 7.82739 3.9163C7.90457 3.94827 7.97053 4.0024 8.01693 4.07185C8.06334 4.1413 8.08811 4.22296 8.08811 4.30649C8.08798 4.41846 8.04345 4.52581 7.96427 4.60498C7.8851 4.68416 7.77775 4.7287 7.66578 4.72882ZM12.3339 4.72882C12.2504 4.72882 12.1687 4.70405 12.0993 4.65765C12.0298 4.61124 11.9757 4.54528 11.9437 4.46811C11.9118 4.39094 11.9034 4.30602 11.9197 4.2241C11.936 4.14217 11.9762 4.06692 12.0353 4.00785C12.0944 3.94879 12.1696 3.90857 12.2515 3.89227C12.3335 3.87597 12.4184 3.88434 12.4955 3.9163C12.5727 3.94827 12.6387 4.0024 12.6851 4.07185C12.7315 4.1413 12.7563 4.22296 12.7563 4.30649C12.7561 4.41846 12.7116 4.52581 12.6324 4.60498C12.5532 4.68416 12.4459 4.7287 12.3339 4.72882ZM4.94271 14.3097C4.94271 14.6339 5.07152 14.9449 5.3008 15.1742C5.53009 15.4035 5.84106 15.5323 6.16532 15.5323H6.97665V18.0331C6.97625 18.1822 7.00527 18.3299 7.06207 18.4679C7.11886 18.6058 7.2023 18.7311 7.30762 18.8367C7.41293 18.9423 7.53805 19.0261 7.6758 19.0833C7.81355 19.1404 7.96122 19.1698 8.11036 19.1698C8.2595 19.1698 8.40718 19.1404 8.54493 19.0833C8.68268 19.0261 8.80779 18.9423 8.91311 18.8367C9.01842 18.7311 9.10187 18.6058 9.15866 18.4679C9.21545 18.3299 9.24448 18.1822 9.24408 18.0331V15.5323H10.7556V18.0331C10.7552 18.1822 10.7842 18.3299 10.841 18.4679C10.8978 18.6058 10.9813 18.7311 11.0866 18.8367C11.1919 18.9423 11.317 19.0261 11.4548 19.0833C11.5925 19.1404 11.7402 19.1698 11.8893 19.1698C12.0385 19.1698 12.1862 19.1404 12.3239 19.0833C12.4617 19.0261 12.5868 18.9423 12.6921 18.8367C12.7974 18.7311 12.8808 18.6058 12.9376 18.4679C12.9944 18.3299 13.0235 18.1822 13.0231 18.0331V15.5323H13.8344C14.1587 15.5323 14.4696 15.4035 14.6989 15.1742C14.9282 14.9449 15.057 14.6339 15.057 14.3097V6.97954H4.94271V14.3097ZM3.38664 6.78503C3.08607 6.78537 2.7979 6.90493 2.58536 7.11747C2.37283 7.33001 2.25327 7.61817 2.25293 7.91875V12.6425C2.25253 12.7916 2.28156 12.9394 2.33835 13.0773C2.39514 13.2152 2.47859 13.3405 2.5839 13.4461C2.68922 13.5517 2.81433 13.6355 2.95208 13.6927C3.08983 13.7498 3.23751 13.7793 3.38665 13.7793C3.53579 13.7793 3.68346 13.7498 3.82121 13.6927C3.95896 13.6355 4.08408 13.5517 4.18939 13.4461C4.29471 13.3405 4.37815 13.2152 4.43494 13.0773C4.49174 12.9394 4.52076 12.7916 4.52036 12.6425V7.91875C4.52002 7.61817 4.40047 7.33 4.18793 7.11746C3.97539 6.90492 3.68722 6.78537 3.38664 6.78503ZM16.6131 6.78503C16.3125 6.78537 16.0243 6.90492 15.8118 7.11746C15.5992 7.33 15.4797 7.61817 15.4793 7.91875V12.6425C15.4789 12.7916 15.508 12.9394 15.5648 13.0773C15.6215 13.2152 15.705 13.3405 15.8103 13.4461C15.9156 13.5517 16.0407 13.6355 16.1785 13.6927C16.3162 13.7498 16.4639 13.7793 16.6131 13.7793C16.7622 13.7793 16.9099 13.7498 17.0476 13.6927C17.1854 13.6355 17.3105 13.5517 17.4158 13.4461C17.5211 13.3405 17.6046 13.2152 17.6614 13.0773C17.7181 12.9394 17.7472 12.7916 17.7468 12.6425V7.91875C17.7464 7.61817 17.6269 7.33001 17.4143 7.11747C17.2018 6.90493 16.9136 6.78537 16.6131 6.78503Z" fill="#404258"/>
</svg>
