<svg width="223" height="280" viewBox="0 0 223 280" fill="none" xmlns="http://www.w3.org/2000/svg">
<rect x="-163" y="60" width="326" height="326" rx="93" stroke="#D11930" stroke-width="120"/>
</svg>
